{
    "push": {
        "changes": [
            {
                "commits": [
                    {
                        "links": {
                            "html": {"href": "https://bitbucket.org/DevProd/legal-consultation/commits/4a7b1c87d24617ca56a47e2775f228da89b18b8c"},
                            "self": {"href": "https://api.bitbucket.org/2.0/repositories/DevProd/legal-consultation/commit/4a7b1c87d24617ca56a47e2775f228da89b18b8c"}
                        },
                        "type": "commit",
                        "hash": "4a7b1c87d24617ca56a47e2775f228da89b18b8c",
                        "message": "Commit 123123123",
                        "author": {"raw": "Alexey"}
                    }
                ],
                "truncated": false,
                "old": {
                    "links": {
                        "commits": {"href": "https://api.bitbucket.org/2.0/repositories/DevProd/legal-consultation/commits/default"},
                        "html": {"href": "https://bitbucket.org/DevProd/legal-consultation/branch/default"},
                        "self": {"href": "https://api.bitbucket.org/2.0/repositories/DevProd/legal-consultation/refs/branches/default"}
                    },
                    "target": {
                        "date": "2015-11-09T13:29:20+00:00",
                        "hash": "e9d070bbda0ae1a7a0b5ba13f7057120c6259d51",
                        "parents": [
                            {
                                "links": {
                                    "html": {"href": "https://bitbucket.org/DevProd/legal-consultation/commits/007be9d7e4979bc2c83d2643fa5e21104936e5c7"},
                                    "self": {"href": "https://api.bitbucket.org/2.0/repositories/DevProd/legal-consultation/commit/007be9d7e4979bc2c83d2643fa5e21104936e5c7"}
                                }, "hash": "007be9d7e4979bc2c83d2643fa5e21104936e5c7", "type": "commit"
                            }
                        ],
                        "links": {
                            "html": {"href": "https://bitbucket.org/DevProd/legal-consultation/commits/e9d070bbda0ae1a7a0b5ba13f7057120c6259d51"},
                            "self": {"href": "https://api.bitbucket.org/2.0/repositories/DevProd/legal-consultation/commit/e9d070bbda0ae1a7a0b5ba13f7057120c6259d51"}
                        },
                        "type": "commit",
                        "message": "Commit 123123123",
                        "author": {"raw": "Alexey"}
                    },
                    "name": "default",
                    "type": "named_branch",
                    "heads": [
                        {
                            "date": "2015-11-09T13:29:20+00:00",
                            "hash": "e9d070bbda0ae1a7a0b5ba13f7057120c6259d51",
                            "parents": [
                                {
                                    "links": {
                                        "html": {"href": "https://bitbucket.org/DevProd/legal-consultation/commits/007be9d7e4979bc2c83d2643fa5e21104936e5c7"},
                                        "self": {"href": "https://api.bitbucket.org/2.0/repositories/DevProd/legal-consultation/commit/007be9d7e4979bc2c83d2643fa5e21104936e5c7"}
                                    }, "hash": "007be9d7e4979bc2c83d2643fa5e21104936e5c7", "type": "commit"
                                }
                            ],
                            "links": {
                                "html": {"href": "https://bitbucket.org/DevProd/legal-consultation/commits/e9d070bbda0ae1a7a0b5ba13f7057120c6259d51"},
                                "self": {"href": "https://api.bitbucket.org/2.0/repositories/DevProd/legal-consultation/commit/e9d070bbda0ae1a7a0b5ba13f7057120c6259d51"}
                            },
                            "type": "commit",
                            "message": "Commit 123123123",
                            "author": {"raw": "Alexey"}
                        }
                    ]
                },
                "links": {
                    "commits": {"href": "https://api.bitbucket.org/2.0/repositories/DevProd/legal-consultation/commits?include=4a7b1c87d24617ca56a47e2775f228da89b18b8c&exclude=e9d070bbda0ae1a7a0b5ba13f7057120c6259d51"},
                    "diff": {"href": "https://api.bitbucket.org/2.0/repositories/DevProd/legal-consultation/diff/4a7b1c87d24617ca56a47e2775f228da89b18b8c..e9d070bbda0ae1a7a0b5ba13f7057120c6259d51"},
                    "html": {"href": "https://bitbucket.org/DevProd/legal-consultation/branches/compare/4a7b1c87d24617ca56a47e2775f228da89b18b8c..e9d070bbda0ae1a7a0b5ba13f7057120c6259d51"}
                },
                "new": {
                    "links": {
                        "commits": {"href": "https://api.bitbucket.org/2.0/repositories/DevProd/legal-consultation/commits/default"},
                        "html": {"href": "https://bitbucket.org/DevProd/legal-consultation/branch/default"},
                        "self": {"href": "https://api.bitbucket.org/2.0/repositories/DevProd/legal-consultation/refs/branches/default"}
                    },
                    "target": {
                        "date": "2015-11-09T20:23:01+00:00",
                        "hash": "4a7b1c87d24617ca56a47e2775f228da89b18b8c",
                        "parents": [
                            {
                                "links": {
                                    "html": {"href": "https://bitbucket.org/DevProd/legal-consultation/commits/e9d070bbda0ae1a7a0b5ba13f7057120c6259d51"},
                                    "self": {"href": "https://api.bitbucket.org/2.0/repositories/DevProd/legal-consultation/commit/e9d070bbda0ae1a7a0b5ba13f7057120c6259d51"}
                                },
                                "hash": "e9d070bbda0ae1a7a0b5ba13f7057120c6259d51",
                                "type": "commit"
                            }
                        ],
                        "links": {
                            "html": {"href": "https://bitbucket.org/DevProd/legal-consultation/commits/4a7b1c87d24617ca56a47e2775f228da89b18b8c"},
                            "self": {"href": "https://api.bitbucket.org/2.0/repositories/DevProd/legal-consultation/commit/4a7b1c87d24617ca56a47e2775f228da89b18b8c"}
                        },
                        "type": "commit",
                        "message": "Commit 123123123",
                        "author": {"raw": "Alexey"}
                    },
                    "name": "default",
                    "type": "named_branch",
                    "heads": [
                        {
                            "date": "2015-11-09T20:23:01+00:00",
                            "hash": "4a7b1c87d24617ca56a47e2775f228da89b18b8c",
                            "parents": [
                                {
                                    "links": {
                                        "html": {"href": "https://bitbucket.org/DevProd/legal-consultation/commits/e9d070bbda0ae1a7a0b5ba13f7057120c6259d51"},
                                        "self": {"href": "https://api.bitbucket.org/2.0/repositories/DevProd/legal-consultation/commit/e9d070bbda0ae1a7a0b5ba13f7057120c6259d51"}
                                    }, "hash": "e9d070bbda0ae1a7a0b5ba13f7057120c6259d51", "type": "commit"
                                }
                            ],
                            "links": {
                                "html": {"href": "https://bitbucket.org/DevProd/legal-consultation/commits/4a7b1c87d24617ca56a47e2775f228da89b18b8c"},
                                "self": {"href": "https://api.bitbucket.org/2.0/repositories/DevProd/legal-consultation/commit/4a7b1c87d24617ca56a47e2775f228da89b18b8c"}
                            },
                            "type": "commit",
                            "message": "Commit 123123123",
                            "author": {"raw": "Alexey"}
                        }
                    ]
                },
                "forced": false,
                "closed": false,
                "created": false
            }
        ]
    },
    "repository": {
        "uuid": "{b7196f29-85bf-4729-a6a1-474f44dc2254}",
        "is_private": true,
        "owner": {
            "display_name": "Alexey Veretelnyk",
            "links": {
                "html": {"href": "https://bitbucket.org/DevProd/"},
                "avatar": {"href": "https://bitbucket.org/account/DevProd/avatar/32/"},
                "self": {"href": "https://api.bitbucket.org/2.0/users/DevProd"}
            },
            "uuid": "{66fe0f2c-e9b0-439b-bd86-8ed483542993}",
            "username": "DevProd",
            "type": "user"
        },
        "links": {
            "html": {"href": "https://bitbucket.org/DevProd/legal-consultation"},
            "avatar": {"href": "https://bitbucket.org/DevProd/legal-consultation/avatar/32/"},
            "self": {"href": "https://api.bitbucket.org/2.0/repositories/DevProd/legal-consultation"}
        },
        "name": "legal-consultation",
        "type": "repository",
        "full_name": "DevProd/legal-consultation",
        "scm": "hg"
    },
    "actor": {
        "display_name": "Alexey Veretelnyk",
        "links": {
            "html": {"href": "https://bitbucket.org/DevProd/"},
            "avatar": {"href": "https://bitbucket.org/account/DevProd/avatar/32/"},
            "self": {"href": "https://api.bitbucket.org/2.0/users/DevProd"}
        },
        "uuid": "{66fe0f2c-e9b0-439b-bd86-8ed483542993}",
        "username": "DevProd",
        "type": "user"
    }
}